{
    "params": {
        "main": [
            {
                "name": "api_key",
                "type": "string",
                "require": true
            },
            {
                "name": "auto",
                "type": "boolean",
                "require": false
            },
            {
                "name": "bsubtype",
                "type": "string",
                "require": false
            },
            {
                "name": "btags",
                "type": "array",
                "require": false
            },
            {
                "name": "btype",
                "type": "string",
                "require": false
            },
            {
                "name": "end_time",
                "type": "string",
                "require": false
            },
            {
                "name": "org_id",
                "type": "string",
                "require": true
            },
            {
                "name": "start_time",
                "type": "string",
                "require": false
            }
        ],
        "common": [
            {
                "name": "codec",
                "type": "codec",
                "require": false
            },
            {
                "name": "enable_metric",
                "type": "boolean",
                "require": false
            },
            {
                "name": "id",
                "type": "string",
                "require": false
            },
            {
                "name": "workers",
                "type": "number",
                "require": false
            }
        ]
    }
}