{
    "params": {
        "main": [
            {
                "name": "close_older",
                "type": "number",
                "require": false
            },
            {
                "name": "delimiter",
                "type": "string",
                "require": false
            },
            {
                "name": "discover_interval",
                "type": "number",
                "require": false
            },
            {
                "name": "exclude",
                "type": "array",
                "require": false
            },
            {
                "name": "ignore_older",
                "type": "number",
                "require": false
            },
            {
                "name": "max_open_files",
                "type": "number",
                "require": false
            },
            {
                "name": "path",
                "type": "array",
                "require": true
            },
            {
                "name": "sincedb_path",
                "type": "string",
                "require": false
            },
            {
                "name": "sincedb_write_interval",
                "type": "number",
                "require": false
            },
            {
                "name": "start_position",
                "type": "string, one of [\"beginning\", \"end\"]",
                "require": false
            },
            {
                "name": "stat_interval",
                "type": "number",
                "require": false
            }
        ],
        "common": [
            {
                "name": "add_field",
                "type": "hash",
                "require": false
            },
            {
                "name": "codec",
                "type": "codec",
                "require": false
            },
            {
                "name": "enable_metric",
                "type": "boolean",
                "require": false
            },
            {
                "name": "id",
                "type": "string",
                "require": false
            },
            {
                "name": "tags",
                "type": "array",
                "require": false
            },
            {
                "name": "type",
                "type": "string",
                "require": false
            }
        ]
    }
}