[
    {
        "name": "boundary",
        "href": "https://www.elastic.co/guide/en/logstash/current/plugins-outputs-boundary.html",
        "desc": "Sends annotations to Boundary based on Logstash events"
    },
    {
        "name": "circonus",
        "href": "https://www.elastic.co/guide/en/logstash/current/plugins-outputs-circonus.html",
        "desc": "Sends annotations to Circonus based on Logstash events"
    },
    {
        "name": "cloudwatch",
        "href": "https://www.elastic.co/guide/en/logstash/current/plugins-outputs-cloudwatch.html",
        "desc": "Aggregates and sends metric data to AWS CloudWatch"
    },
    {
        "name": "csv",
        "href": "https://www.elastic.co/guide/en/logstash/current/plugins-outputs-csv.html",
        "desc": "Writes events to disk in a delimited format"
    },
    {
        "name": "datadog",
        "href": "https://www.elastic.co/guide/en/logstash/current/plugins-outputs-datadog.html",
        "desc": "Sends events to DataDogHQ based on Logstash events"
    },
    {
        "name": "datadog_metrics",
        "href": "https://www.elastic.co/guide/en/logstash/current/plugins-outputs-datadog_metrics.html",
        "desc": "Sends metrics to DataDogHQ based on Logstash events"
    },
    {
        "name": "elasticsearch",
        "href": "https://www.elastic.co/guide/en/logstash/current/plugins-outputs-elasticsearch.html",
        "desc": "Stores logs in Elasticsearch"
    },
    {
        "name": "email",
        "href": "https://www.elastic.co/guide/en/logstash/current/plugins-outputs-email.html",
        "desc": "Sends email to a specified address when output is received"
    },
    {
        "name": "exec",
        "href": "https://www.elastic.co/guide/en/logstash/current/plugins-outputs-exec.html",
        "desc": "Runs a command for a matching event"
    },
    {
        "name": "file",
        "href": "https://www.elastic.co/guide/en/logstash/current/plugins-outputs-file.html",
        "desc": "Writes events to files on disk"
    },
    {
        "name": "ganglia",
        "href": "https://www.elastic.co/guide/en/logstash/current/plugins-outputs-ganglia.html",
        "desc": "Writes metrics to Ganglia’s gmond"
    },
    {
        "name": "gelf",
        "href": "https://www.elastic.co/guide/en/logstash/current/plugins-outputs-gelf.html",
        "desc": "Generates GELF formatted output for Graylog2"
    },
    {
        "name": "google_bigquery",
        "href": "https://www.elastic.co/guide/en/logstash/current/plugins-outputs-google_bigquery.html",
        "desc": "Writes events to Google BigQuery"
    },
    {
        "name": "google_cloud_storage",
        "href": "https://www.elastic.co/guide/en/logstash/current/plugins-outputs-google_cloud_storage.html",
        "desc": "Writes events to Google Cloud Storage"
    },
    {
        "name": "graphite",
        "href": "https://www.elastic.co/guide/en/logstash/current/plugins-outputs-graphite.html",
        "desc": "Writes metrics to Graphite"
    },
    {
        "name": "graphtastic",
        "href": "https://www.elastic.co/guide/en/logstash/current/plugins-outputs-graphtastic.html",
        "desc": "Sends metric data on Windows"
    },
    {
        "name": "hipchat",
        "href": "https://www.elastic.co/guide/en/logstash/current/plugins-outputs-hipchat.html",
        "desc": "Writes events to HipChat"
    },
    {
        "name": "http",
        "href": "https://www.elastic.co/guide/en/logstash/current/plugins-outputs-http.html",
        "desc": "Sends events to a generic HTTP or HTTPS endpoint"
    },
    {
        "name": "influxdb",
        "href": "https://www.elastic.co/guide/en/logstash/current/plugins-outputs-influxdb.html",
        "desc": "Writes metrics to InfluxDB"
    },
    {
        "name": "irc",
        "href": "https://www.elastic.co/guide/en/logstash/current/plugins-outputs-irc.html",
        "desc": "Writes events to IRC"
    },
    {
        "name": "jira",
        "href": "https://www.elastic.co/guide/en/logstash/current/plugins-outputs-jira.html",
        "desc": "Writes strutured JSON events to JIRA"
    },
    {
        "name": "jms",
        "href": "https://www.elastic.co/guide/en/logstash/current/plugins-outputs-jms.html",
        "desc": "Writes events to a Jms Broker"
    },
    {
        "name": "juggernaut",
        "href": "https://www.elastic.co/guide/en/logstash/current/plugins-outputs-juggernaut.html",
        "desc": "Pushes messages to the Juggernaut websockets server"
    },
    {
        "name": "kafka",
        "href": "https://www.elastic.co/guide/en/logstash/current/plugins-outputs-kafka.html",
        "desc": "Writes events to a Kafka topic"
    },
    {
        "name": "librato",
        "href": "https://www.elastic.co/guide/en/logstash/current/plugins-outputs-librato.html",
        "desc": "Sends metrics, annotations, and alerts to Librato based on Logstash events"
    },
    {
        "name": "loggly",
        "href": "https://www.elastic.co/guide/en/logstash/current/plugins-outputs-loggly.html",
        "desc": "Ships logs to Loggly"
    },
    {
        "name": "lumberjack",
        "href": "https://www.elastic.co/guide/en/logstash/current/plugins-outputs-lumberjack.html",
        "desc": "Sends events using the lumberjack protocol"
    },
    {
        "name": "metriccatcher",
        "href": "https://www.elastic.co/guide/en/logstash/current/plugins-outputs-metriccatcher.html",
        "desc": "Writes metrics to MetricCatcher"
    },
    {
        "name": "mongodb",
        "href": "https://www.elastic.co/guide/en/logstash/current/plugins-outputs-mongodb.html",
        "desc": "Writes events to MongoDB"
    },
    {
        "name": "nagios",
        "href": "https://www.elastic.co/guide/en/logstash/current/plugins-outputs-nagios.html",
        "desc": "Sends passive check results to Nagios"
    },
    {
        "name": "nagios_nsca",
        "href": "https://www.elastic.co/guide/en/logstash/current/plugins-outputs-nagios_nsca.html",
        "desc": "Sends passive check results to Nagios using the NSCA protocol"
    },
    {
        "name": "newrelic",
        "href": "https://www.elastic.co/guide/en/logstash/current/plugins-outputs-newrelic.html",
        "desc": "Sends logstash events to New Relic Insights as custom events"
    },
    {
        "name": "opentsdb",
        "href": "https://www.elastic.co/guide/en/logstash/current/plugins-outputs-opentsdb.html",
        "desc": "Writes metrics to OpenTSDB"
    },
    {
        "name": "pagerduty",
        "href": "https://www.elastic.co/guide/en/logstash/current/plugins-outputs-pagerduty.html",
        "desc": "Sends notifications based on preconfigured services and escalation policies"
    },
    {
        "name": "pipe",
        "href": "https://www.elastic.co/guide/en/logstash/current/plugins-outputs-pipe.html",
        "desc": "Pipes events to another program’s standard input"
    },
    {
        "name": "rabbitmq",
        "href": "https://www.elastic.co/guide/en/logstash/current/plugins-outputs-rabbitmq.html",
        "desc": "Pushes events to a RabbitMQ exchange"
    },
    {
        "name": "rackspace",
        "href": "https://www.elastic.co/guide/en/logstash/current/plugins-outputs-rackspace.html",
        "desc": "Sends events to a Rackspace Cloud Queue service"
    },
    {
        "name": "redis",
        "href": "https://www.elastic.co/guide/en/logstash/current/plugins-outputs-redis.html",
        "desc": "Sends events to a Redis queue using the RPUSH command"
    },
    {
        "name": "redmine",
        "href": "https://www.elastic.co/guide/en/logstash/current/plugins-outputs-redmine.html",
        "desc": "Creates tickets using the Redmine API"
    },
    {
        "name": "riak",
        "href": "https://www.elastic.co/guide/en/logstash/current/plugins-outputs-riak.html",
        "desc": "Writes events to the Riak distributed key/value store"
    },
    {
        "name": "riemann",
        "href": "https://www.elastic.co/guide/en/logstash/current/plugins-outputs-riemann.html",
        "desc": "Sends metrics to Riemann"
    },
    {
        "name": "s3",
        "href": "https://www.elastic.co/guide/en/logstash/current/plugins-outputs-s3.html",
        "desc": "Sends Logstash events to the Amazon Simple Storage Service"
    },
    {
        "name": "sns",
        "href": "https://www.elastic.co/guide/en/logstash/current/plugins-outputs-sns.html",
        "desc": "Sends events to Amazon’s Simple Notification Service"
    },
    {
        "name": "solr_http",
        "href": "https://www.elastic.co/guide/en/logstash/current/plugins-outputs-solr_http.html",
        "desc": "Stores and indexes logs in Solr"
    },
    {
        "name": "sqs",
        "href": "https://www.elastic.co/guide/en/logstash/current/plugins-outputs-sqs.html",
        "desc": "Pushes events to an Amazon Web Services Simple Queue Service queue"
    },
    {
        "name": "statsd",
        "href": "https://www.elastic.co/guide/en/logstash/current/plugins-outputs-statsd.html",
        "desc": "Sends metrics using the statsd network daemon"
    },
    {
        "name": "stdout",
        "href": "https://www.elastic.co/guide/en/logstash/current/plugins-outputs-stdout.html",
        "desc": "Prints events to the standard output"
    },
    {
        "name": "stomp",
        "href": "https://www.elastic.co/guide/en/logstash/current/plugins-outputs-stomp.html",
        "desc": "Writes events using the STOMP protocol"
    },
    {
        "name": "syslog",
        "href": "https://www.elastic.co/guide/en/logstash/current/plugins-outputs-syslog.html",
        "desc": "Sends events to a syslog server"
    },
    {
        "name": "tcp",
        "href": "https://www.elastic.co/guide/en/logstash/current/plugins-outputs-tcp.html",
        "desc": "Writes events over a TCP socket"
    },
    {
        "name": "udp",
        "href": "https://www.elastic.co/guide/en/logstash/current/plugins-outputs-udp.html",
        "desc": "Sends events over UDP"
    },
    {
        "name": "webhdfs",
        "href": "https://www.elastic.co/guide/en/logstash/current/plugins-outputs-webhdfs.html",
        "desc": "Sends Logstash events to HDFS using the webhdfs REST API"
    },
    {
        "name": "websocket",
        "href": "https://www.elastic.co/guide/en/logstash/current/plugins-outputs-websocket.html",
        "desc": "Publishes messages to a websocket"
    },
    {
        "name": "xmpp",
        "href": "https://www.elastic.co/guide/en/logstash/current/plugins-outputs-xmpp.html",
        "desc": "Posts events over XMPP"
    },
    {
        "name": "zabbix",
        "href": "https://www.elastic.co/guide/en/logstash/current/plugins-outputs-zabbix.html",
        "desc": "Sends events to a Zabbix server"
    },
    {
        "name": "zeromq",
        "href": "https://www.elastic.co/guide/en/logstash/current/plugins-outputs-zeromq.html",
        "desc": "Writes events to a ZeroMQ PUB socket"
    }
]